# Exported from Wings 3D 1.5.3
mtllib arrow.mtl
o Cylinder1
#49 vertices, 90 faces
v 5.0000000e-2 1.00000000 -3.0728664e-18
v 4.6193977e-2 1.00000000 1.9134172e-2
v 3.5355339e-2 1.00000000 3.5355339e-2
v 1.9134172e-2 1.00000000 4.6193977e-2
v 6.4319369e-18 1.00000000 5.0000000e-2
v -1.9134172e-2 1.00000000 4.6193977e-2
v -3.5355339e-2 1.00000000 3.5355339e-2
v -4.6193977e-2 1.00000000 1.9134172e-2
v -5.0000000e-2 1.00000000 3.0503675e-18
v -4.6193977e-2 1.00000000 -1.9134172e-2
v -3.5355339e-2 1.00000000 -3.5355339e-2
v -1.9134172e-2 1.00000000 -4.6193977e-2
v -5.8145311e-18 1.00000000 -5.0000000e-2
v 1.9134172e-2 1.00000000 -4.6193977e-2
v 3.5355339e-2 1.00000000 -3.5355339e-2
v 4.6193977e-2 1.00000000 -1.9134172e-2
v 5.0000000e-2 0.0000000e+0 -3.0728664e-18
v 4.6193977e-2 0.0000000e+0 1.9134172e-2
v 3.5355339e-2 0.0000000e+0 3.5355339e-2
v 1.9134172e-2 0.0000000e+0 4.6193977e-2
v 6.4319369e-18 0.0000000e+0 5.0000000e-2
v -1.9134172e-2 0.0000000e+0 4.6193977e-2
v -3.5355339e-2 0.0000000e+0 3.5355339e-2
v -4.6193977e-2 0.0000000e+0 1.9134172e-2
v -5.0000000e-2 0.0000000e+0 3.0503675e-18
v -4.6193977e-2 0.0000000e+0 -1.9134172e-2
v -3.5355339e-2 0.0000000e+0 -3.5355339e-2
v -1.9134172e-2 0.0000000e+0 -4.6193977e-2
v -5.8145311e-18 0.0000000e+0 -5.0000000e-2
v 1.9134172e-2 0.0000000e+0 -4.6193977e-2
v 3.5355339e-2 0.0000000e+0 -3.5355339e-2
v 4.6193977e-2 0.0000000e+0 -1.9134172e-2
v 0.14000000 0.98352941 -5.6164224e-18
v 0.12934313 0.98352941 5.3575681e-2
v 9.8994949e-2 0.98352941 9.8994949e-2
v 5.3575681e-2 0.98352941 0.12934313
v 1.8042077e-17 0.98352941 0.14000000
v -5.3575681e-2 0.98352941 0.12934313
v -9.8994949e-2 0.98352941 9.8994949e-2
v -0.12934313 0.98352941 5.3575681e-2
v -0.14000000 0.98352941 1.1528633e-17
v -0.12934313 0.98352941 -5.3575681e-2
v -9.8994949e-2 0.98352941 -9.8994949e-2
v -5.3575681e-2 0.98352941 -0.12934313
v -1.6248033e-17 0.98352941 -0.14000000
v 5.3575681e-2 0.98352941 -0.12934313
v 9.8994949e-2 0.98352941 -9.8994949e-2
v 0.12934313 0.98352941 -5.3575681e-2
v 9.4695493e-18 1.26352941 -5.6164224e-18
vn 0.89090915 0.45418155 -5.0424281e-17
vn 0.82309273 0.45418155 0.34093617
vn 0.38696817 0.83696551 0.38696817
vn 0.30398942 0.60744384 0.73389537
vn -7.7434865e-18 0.83696551 0.54725564
vn -0.30398942 0.60744384 0.73389537
vn -0.38696817 0.83696551 0.38696817
vn -0.73389537 0.60744384 0.30398942
vn -0.89090915 0.45418155 3.0254569e-16
vn -0.82309273 0.45418155 -0.34093617
vn -0.38696817 0.83696551 -0.38696817
vn -0.30398942 0.60744384 -0.73389537
vn -7.7434865e-18 0.83696551 -0.54725564
vn 0.30398942 0.60744384 -0.73389537
vn 0.38696817 0.83696551 -0.38696817
vn 0.73389537 0.60744384 -0.30398942
vn 0.79436263 -0.60744384 -4.4959875e-17
vn 0.50559828 -0.83696551 0.20942567
vn 0.56169920 -0.60744384 0.56169920
vn 0.26796049 -0.71393252 0.64691385
vn -1.3711249e-17 -0.24699991 0.96901550
vn -0.20942567 -0.83696551 0.50559828
vn -0.56169920 -0.60744384 0.56169920
vn -0.50559828 -0.83696551 0.20942567
vn -0.79436263 -0.60744384 2.6975925e-16
vn -0.50559828 -0.83696551 -0.20942567
vn -0.56169920 -0.60744384 -0.56169920
vn -0.26796049 -0.71393252 -0.64691385
vn -1.8510187e-16 -0.24699991 -0.96901550
vn 0.20942567 -0.83696551 -0.50559828
vn 0.56169920 -0.60744384 -0.56169920
vn 0.50559828 -0.83696551 -0.20942567
vn 0.99770979 -6.7640061e-2 4.7170181e-17
vn 0.59046943 -0.76910745 0.24458044
vn 0.45192573 -0.76910745 0.45192573
vn 0.24458044 -0.76910745 0.59046943
vn -9.0649754e-17 -0.76910745 0.63911950
vn -0.24458044 -0.76910745 0.59046943
vn -0.45192573 -0.76910745 0.45192573
vn -0.77971445 -0.53641108 0.32296830
vn -0.99770979 -6.7640061e-2 0.0000000e+0
vn -0.59046943 -0.76910745 -0.24458044
vn -0.45192573 -0.76910745 -0.45192573
vn -0.24458044 -0.76910745 -0.59046943
vn -3.7267121e-16 -0.76910745 -0.63911950
vn 0.24458044 -0.76910745 -0.59046943
vn 0.45192573 -0.76910745 -0.45192573
vn 0.77971445 -0.53641108 -0.32296830
vn -2.9943024e-16 1.00000000 -1.2607589e-16
g Cylinder1
usemtl default
s 1
f 1//1 16//16 2//2
f 1//1 17//17 16//16
f 2//2 16//16 3//3
f 2//2 17//17 1//1
f 2//2 19//19 18//18
f 3//3 15//15 4//4
f 3//3 19//19 2//2
f 4//4 14//14 5//5
f 4//4 19//19 3//3
f 4//4 21//21 20//20
f 5//5 13//13 6//6
f 5//5 21//21 4//4
f 6//6 12//12 7//7
f 6//6 21//21 5//5
f 6//6 23//23 22//22
f 7//7 11//11 8//8
f 7//7 23//23 6//6
f 8//8 10//10 9//9
f 8//8 23//23 7//7
f 8//8 25//25 24//24
f 9//9 25//25 8//8
f 10//10 8//8 11//11
f 10//10 25//25 9//9
f 10//10 27//27 26//26
f 11//11 7//7 12//12
f 11//11 27//27 10//10
f 12//12 6//6 13//13
f 12//12 27//27 11//11
f 12//12 29//29 28//28
f 13//13 5//5 14//14
f 13//13 29//29 12//12
f 14//14 4//4 15//15
f 14//14 29//29 13//13
f 14//14 31//31 30//30
f 15//15 3//3 16//16
f 15//15 31//31 14//14
f 16//16 17//17 32//32
f 16//16 31//31 15//15
f 17//17 25//25 32//32
f 18//18 17//17 2//2
f 18//18 24//24 17//17
f 19//19 23//23 18//18
f 20//20 19//19 4//4
f 20//20 22//22 19//19
f 21//21 22//22 20//20
f 22//22 21//21 6//6
f 23//23 19//19 22//22
f 24//24 18//18 23//23
f 24//24 23//23 8//8
f 25//25 17//17 24//24
f 26//26 25//25 10//10
f 26//26 32//32 25//25
f 27//27 31//31 26//26
f 28//28 27//27 12//12
f 28//28 30//30 27//27
f 29//29 30//30 28//28
f 30//30 29//29 14//14
f 31//31 27//27 30//30
f 32//32 26//26 31//31
f 32//32 31//31 16//16
f 33//33 49//49 34//34
f 34//34 48//48 33//33
f 34//34 49//49 35//35
f 35//35 47//47 34//34
f 35//35 49//49 36//36
f 36//36 46//46 35//35
f 36//36 49//49 37//37
f 37//37 45//45 36//36
f 37//37 49//49 38//38
f 38//38 44//44 37//37
f 38//38 49//49 39//39
f 39//39 43//43 38//38
f 39//39 49//49 40//40
f 40//40 42//42 39//39
f 40//40 49//49 41//41
f 41//41 42//42 40//40
f 41//41 49//49 42//42
f 42//42 49//49 43//43
f 43//43 39//39 42//42
f 43//43 49//49 44//44
f 44//44 38//38 43//43
f 44//44 49//49 45//45
f 45//45 37//37 44//44
f 45//45 49//49 46//46
f 46//46 36//36 45//45
f 46//46 49//49 47//47
f 47//47 35//35 46//46
f 47//47 49//49 48//48
f 48//48 34//34 47//47
f 48//48 49//49 33//33
