{
  "Camera":[275.0, 275.0, -600.0],
  "Scale":0.01,
  "Geometry":[
    {
      "name":"Back wall",
      "A":[556.0, 0.0, 559.2],
      "B":[556.0, 548.8, 559.2],
      "C":[0.0, 548.8, 559.2],
      "D":[0.0, 0.0, 559.2],
      "Properties":
        {
          "DiffuseColor":[1.0, 1.0, 1.0],
          "Emission":[0.0, 0.0, 0.0],
          "Reflectance":[1.0, 1.0, 1.0]
        }
    },
    {
      "name":"Light",
      "A":[343.0, 548.6, 227.0],
      "B":[213.0, 548.6, 227.0],
      "C":[213.0, 548.6, 332.0],
      "D":[343.0, 548.6, 332.0],
      "Properties":
        {
          "DiffuseColor":[1.0, 1.0, 1.0],
          "Emission":[15.0, 15.0, 15.0],
          "Reflectance":[0.0, 0.0, 0.0]
        }
    },
    {
      "name":"Ceiling",
      "A":[556.0, 548.8, 0.0],
      "B":[0.0, 548.8, 0.0],
      "C":[0.0, 548.8, 559.2],
      "D":[556.0, 548.8, 559.2],
      "Properties":
        {
          "DiffuseColor":[1.0, 1.0, 1.0],
          "Emission":[0.0, 0.0, 0.0],
          "Reflectance":[1.0, 1.0, 1.0]
        }
    },
    {
      "name":"Floor",
      "A":[552.8, 0.0, 0.0],
      "B":[549.6, 0.0, 559.2],
      "C":[0.0, 0.0, 559.2],
      "D":[0.0, 0.0, 0.0],
      "Properties":
        {
          "DiffuseColor":[1.0, 1.0, 1.0],
          "Emission":[0.0, 0.0, 0.0],
          "Reflectance":[1.0, 1.0, 1.0]
        }
    },
    {
      "name":"Right wall",
      "A":[0.0, 0.0, 559.2],
      "B":[0.0, 548.8, 559.2],
      "C":[0.0, 548.8, 0.0],
      "D":[0.0, 0.0, 0.0],
      "Properties":
        {
          "DiffuseColor":[0.0, 1.0, 0.0],
          "Emission":[0.0, 0.0, 0.0],
          "Reflectance":[1.0, 1.0, 1.0]
        }
    },
    {
      "name":"Left wall",
      "A":[552.8, 0.0, 0.0],
      "B":[556.0, 548.8, 0.0],
      "C":[556.0, 548.8, 559.2],
      "D":[549.6, 0.0, 559.2],
      "Properties":
        {
          "DiffuseColor":[1.0, 0.0, 0.0],
          "Emission":[0.0, 0.0, 0.0],
          "Reflectance":[1.0, 1.0, 1.0]
        }
    },
    {
      "name":"Short block",
      "A":[130.0, 165.0, 65.0],
      "B":[290.0, 165.0, 114.0],
      "C":[240.0, 165.0, 272.0],
      "D":[82.0, 165.0, 225.0],
      "Properties":
        {
          "DiffuseColor":[1.0, 1.0, 1.0],
          "Emission":[0.0, 0.0, 0.0],
          "Reflectance":[1.0, 1.0, 1.0]
        }
    },
    {
      "name":"Short block",
      "A":[290.0, 0.0, 114.0],
      "B":[240.0, 0.0, 272.0],
      "C":[240.0, 165.0, 272.0],
      "D":[290.0, 165.0, 114.0],
      "Properties":
        {
          "DiffuseColor":[1.0, 1.0, 1.0],
          "Emission":[0.0, 0.0, 0.0],
          "Reflectance":[1.0, 1.0, 1.0]
        }
    },
    {
      "name":"Short block",
      "A":[130.0, 0.0, 65.0],
      "B":[290.0, 0.0, 114.0],
      "C":[290.0, 165.0, 114.0],
      "D":[130.0, 165.0, 65.0],
      "Properties":
        {
          "DiffuseColor":[1.0, 1.0, 1.0],
          "Emission":[0.0, 0.0, 0.0],
          "Reflectance":[1.0, 1.0, 1.0]
        }
    },
    {
      "name":"Short block",
      "A":[82.0, 0.0, 225.0],
      "B":[130.0, 0.0, 65.0],
      "C":[130.0, 165.0, 65.0],
      "D":[82.0, 165.0, 225.0],
      "Properties":
        {
          "DiffuseColor":[1.0, 1.0, 1.0],
          "Emission":[0.0, 0.0, 0.0],
          "Reflectance":[1.0, 1.0, 1.0]
        }
    },
    {
      "name":"Short block",
      "A":[240.0, 0.0, 272.0],
      "B":[82.0, 0.0, 225.0],
      "C":[82.0, 165.0, 225.0],
      "D":[240.0, 165.0, 270.0],
      "Properties":
        {
          "DiffuseColor":[1.0, 1.0, 1.0],
          "Emission":[0.0, 0.0, 0.0],
          "Reflectance":[1.0, 1.0, 1.0]
        }
    },
    {
      "name":"Tall block",
      "A":[423.0, 330.0, 247.0],
      "B":[472.0, 330.0, 406.0],
      "C":[314.0, 330.0, 456.0],
      "D":[265.0, 330.0, 296.0],
      "Properties":
        {
          "DiffuseColor":[1.0, 1.0, 1.0],
          "Emission":[0.0, 0.0, 0.0],
          "Reflectance":[1.0, 1.0, 1.0]
        }
    },
    {
      "name":"Tall block",
      "A":[423.0, 0.0, 247.0],
      "B":[472.0, 0.0, 406.0],
      "C":[472.0, 330.0, 406.0],
      "D":[423.0, 330.0, 247.0],
      "Properties":
        {
          "DiffuseColor":[1.0, 1.0, 1.0],
          "Emission":[0.0, 0.0, 0.0],
          "Reflectance":[1.0, 1.0, 1.0]
        }
    },
    {
      "name":"Tall block",
      "A":[472.0, 0.0, 406.0],
      "B":[314.0, 0.0, 456.0],
      "C":[314.0, 330.0, 456.0],
      "D":[472.0, 330.0, 406.0],
      "Properties":
        {
          "DiffuseColor":[1.0, 1.0, 1.0],
          "Emission":[0.0, 0.0, 0.0],
          "Reflectance":[1.0, 1.0, 1.0]
        }
    },
    {
      "name":"Tall block",
      "A":[314.0, 0.0, 456.0],
      "B":[265.0, 0.0, 296.0],
      "C":[265.0, 330.0, 296.0],
      "D":[314.0, 330.0, 456.0],
      "Properties":
        {
          "DiffuseColor":[1.0, 1.0, 1.0],
          "Emission":[0.0, 0.0, 0.0],
          "Reflectance":[1.0, 1.0, 1.0]
        }
    },
    {
      "name":"Tall block",
      "A":[265.0, 0.0, 296.0],
      "B":[423.0, 0.0, 247.0],
      "C":[423.0, 330.0, 247.0],
      "D":[265.0, 330.0, 296.0],
      "Properties":
        {
          "DiffuseColor":[1.0, 1.0, 1.0],
          "Emission":[0.0, 0.0, 0.0],
          "Reflectance":[1.0, 1.0, 1.0]
        }
    }
  ]
}
