# Alias OBJ Model File
# Exported from SketchUp, (c) 2000-2012 Trimble Navigation Limited
# File units = meters

mtllib room.mtl

g Mesh1 Model

usemtl FrontColor
v 0 0 -0
vt 0 0
vn 0 0 -1
v 3.25389 0.80816 -0
vt -128.106 31.8173
v 13.44 0 -0
vt -529.134 0
f 1/1/1 2/2/1 3/3/1

v 0 3.95504 -0
vt 0 155.71
f 2/2/1 1/1/1 4/4/1

v 0 0 -10.05
vt 395.669 0
vn 1 0 -0
f 5/5/2 4/4/2 1/1/2

v 0 3.95504 -10.05
vt 395.669 155.71
f 4/4/2 5/5/2 6/6/2

vn 0 0 1
v 4.78107 3.95504 -10.05
vt 188.231 155.71
f 5/1/3 7/7/3 6/4/3

v 4.78107 0 -10.05
vt 188.231 0
f 7/7/3 5/1/3 8/8/3

vt 0 395.669
vn 0 1 -0
v 3.3907 0 -5.55405
vt 133.492 218.663
vt 188.231 395.669
f 5/9/4 9/10/4 8/11/4

v 3.3907 0 -3.41405
vt 133.492 134.411
f 9/10/4 5/9/4 10/12/4

f 1/1/4 10/12/4 5/9/4

vt 529.134 0
f 10/12/4 1/1/4 3/13/4

v 5.5307 0 -3.41405
vt 217.744 134.411
f 10/12/4 3/13/4 11/14/4

v 5.5307 0 -5.55405
vt 217.744 218.663
f 11/14/4 3/13/4 12/15/4

v 11.62 0 -3.38775
vt 457.48 133.376
f 12/15/4 3/13/4 13/16/4

v 13.44 0 -3.38775
vt 529.134 133.376
f 13/16/4 3/13/4 14/17/4

usemtl Color_G01
vn -1 0 -0
v 13.44 3.95504 -3.38775
vt -133.376 155.71
vt -133.376 0
f 3/1/5 15/18/5 14/19/5

v 13.44 3.95504 -0
f 15/18/5 3/1/5 16/4/5

usemtl FrontColor
v 9.79389 0.80816 -0
vt -385.586 31.8173
vt -529.134 155.71
f 3/3/1 17/20/1 16/21/1

f 17/20/1 3/3/1 2/2/1

v 5.60389 0.80816 -0
vt -220.626 31.8173
f 17/20/1 2/2/1 18/22/1

v 7.44389 0.80816 -0
vt -293.067 31.8173
f 17/20/1 18/22/1 19/23/1

v 5.60389 3.15816 -0
vt -220.626 124.337
f 20/24/1 19/23/1 18/22/1

v 7.44389 3.15816 -0
vt -293.067 124.337
f 19/23/1 20/24/1 21/25/1

f 20/24/1 4/4/1 21/25/1

v 3.25389 3.15816 -0
vt -128.106 124.337
f 22/26/1 4/4/1 20/24/1

f 2/2/1 4/4/1 22/26/1

v 9.79389 3.15816 -0
vt -385.586 124.337
f 21/25/1 4/4/1 23/27/1

f 16/21/1 23/27/1 4/4/1

f 16/21/1 17/20/1 23/27/1

vn 0 -1 -0
v 3.3907 3.95504 -3.41405
vt -133.492 134.411
f 4/1/6 24/28/6 16/3/6

v 3.3907 3.95504 -5.55405
vt -133.492 218.663
f 24/28/6 4/1/6 25/29/6

vt -188.231 395.669
f 4/1/6 7/30/6 25/29/6

f 7/30/6 4/1/6 6/9/6

v 5.5307 3.95504 -5.55405
vt -217.744 218.663
f 25/29/6 7/30/6 26/31/6

v 13.44 3.95504 -13.34
vt -529.134 525.197
f 7/30/6 27/32/6 26/31/6

v 4.78107 3.95504 -13.34
vt -188.231 525.197
f 27/32/6 7/30/6 28/33/6

v 4.78107 0 -13.34
vt 525.197 0
vt 525.197 155.71
f 7/6/2 29/34/2 28/35/2

f 29/34/2 7/6/2 8/5/2

vt 188.231 525.197
f 8/11/4 12/15/4 29/36/4

f 8/11/4 9/10/4 12/15/4

usemtl Color_A01
vt -133.492 155.71
vt -217.744 0
vt -133.492 0
f 25/37/1 12/38/1 9/39/1

vt -217.744 155.71
f 12/38/1 25/37/1 26/40/1

v 5.5307 3.95504 -3.41405
vt 134.411 155.71
vt 218.663 0
vt 218.663 155.71
f 30/41/2 12/42/2 26/43/2

vt 134.411 0
f 12/42/2 30/41/2 11/44/2

vt 217.744 155.71
vt 133.492 0
vt 217.744 0
f 30/45/3 10/46/3 11/47/3

vt 133.492 155.71
f 10/46/3 30/45/3 24/48/3

usemtl FrontColor
vt -217.744 134.411
f 16/3/6 24/28/6 30/49/6

v 11.62 3.95504 -3.38775
vt -457.48 133.376
f 16/3/6 30/49/6 31/50/6

v 11.62 3.95504 -6.67
vt -457.48 262.598
f 31/50/6 30/49/6 32/51/6

f 30/49/6 27/32/6 32/51/6

f 26/31/6 27/32/6 30/49/6

v 13.44 3.95504 -6.67
vt -529.134 262.598
f 32/51/6 27/32/6 33/52/6

usemtl Color_G01
vt -525.197 155.71
v 13.44 0 -6.67
vt -262.598 0
vt -262.598 155.71
f 27/53/5 34/54/5 33/55/5

v 13.44 0 -13.34
vt -525.197 0
f 34/54/5 27/53/5 35/56/5

usemtl FrontColor
vt 529.134 155.71
f 27/57/3 29/8/3 35/13/3

f 29/8/3 27/57/3 28/7/3

vt 529.134 525.197
f 29/36/4 12/15/4 35/58/4

v 11.62 0 -6.67
vt 457.48 262.598
f 35/58/4 12/15/4 36/59/4

f 36/59/4 12/15/4 13/16/4

usemtl Color_G01
f 13/19/5 32/55/5 36/54/5

f 32/55/5 13/19/5 31/18/5

vt 457.48 0
vt 457.48 155.71
f 13/60/3 15/57/3 31/61/3

f 15/57/3 13/60/3 14/13/3

usemtl FrontColor
vt -529.134 133.376
f 16/3/6 31/50/6 15/62/6

usemtl Color_G01
vt -457.48 155.71
vt -457.48 0
f 32/63/1 34/3/1 36/64/1

f 34/3/1 32/63/1 33/21/1

usemtl FrontColor
vt 529.134 262.598
f 35/58/4 36/59/4 34/65/4

usemtl Color_A01
vt -218.663 155.71
vt -134.411 0
vt -134.411 155.71
f 25/66/5 10/67/5 24/68/5

vt -218.663 0
f 10/67/5 25/66/5 9/69/5

